Labs for UO’s EDLD 653: Functional Programming for Educational Data Science Course – Functional Programming in R
…
penguins dataset variable names

names(penguins)

[1] "species"           "island"            "bill_length_mm"   
[4] "bill_depth_mm"     "flipper_length_mm" "body_mass_g"      
[7] "sex"               "year"             

Split the data file by species and sex

by_species_sex <- split(penguins, list(penguins$species, penguins$sex))
by_species_sex

$Adelie.female
# A tibble: 73 × 8
   species island    bill_length_mm bill_depth_mm flipper_length_mm body_mass_g
   <fct>   <fct>              <dbl>         <dbl>             <int>       <int>
 1 Adelie  Torgersen           39.5          17.4               186        3800
 2 Adelie  Torgersen           40.3          18                 195        3250
 3 Adelie  Torgersen           36.7          19.3               193        3450
 4 Adelie  Torgersen           38.9          17.8               181        3625
 5 Adelie  Torgersen           41.1          17.6               182        3200
 6 Adelie  Torgersen           36.6          17.8               185        3700
 7 Adelie  Torgersen           38.7          19                 195        3450
 8 Adelie  Torgersen           34.4          18.4               184        3325
 9 Adelie  Biscoe              37.8          18.3               174        3400
10 Adelie  Biscoe              35.9          19.2               189        3800
# ℹ 63 more rows
# ℹ 2 more variables: sex <fct>, year <int>

$Chinstrap.female
# A tibble: 34 × 8
   species   island bill_length_mm bill_depth_mm flipper_length_mm body_mass_g
   <fct>     <fct>           <dbl>         <dbl>             <int>       <int>
 1 Chinstrap Dream            46.5          17.9               192        3500
 2 Chinstrap Dream            45.4          18.7               188        3525
 3 Chinstrap Dream            45.2          17.8               198        3950
 4 Chinstrap Dream            46.1          18.2               178        3250
 5 Chinstrap Dream            46            18.9               195        4150
 6 Chinstrap Dream            46.6          17.8               193        3800
 7 Chinstrap Dream            47            17.3               185        3700
 8 Chinstrap Dream            45.9          17.1               190        3575
 9 Chinstrap Dream            58            17.8               181        3700
10 Chinstrap Dream            46.4          18.6               190        3450
# ℹ 24 more rows
# ℹ 2 more variables: sex <fct>, year <int>

$Gentoo.female
# A tibble: 58 × 8
   species island bill_length_mm bill_depth_mm flipper_length_mm body_mass_g
   <fct>   <fct>           <dbl>         <dbl>             <int>       <int>
 1 Gentoo  Biscoe           46.1          13.2               211        4500
 2 Gentoo  Biscoe           48.7          14.1               210        4450
 3 Gentoo  Biscoe           46.5          13.5               210        4550
 4 Gentoo  Biscoe           45.4          14.6               211        4800
 5 Gentoo  Biscoe           43.3          13.4               209        4400
 6 Gentoo  Biscoe           40.9          13.7               214        4650
 7 Gentoo  Biscoe           45.5          13.7               214        4650
 8 Gentoo  Biscoe           45.8          14.6               210        4200
 9 Gentoo  Biscoe           42            13.5               210        4150
10 Gentoo  Biscoe           46.2          14.5               209        4800
# ℹ 48 more rows
# ℹ 2 more variables: sex <fct>, year <int>

$Adelie.male
# A tibble: 73 × 8
   species island    bill_length_mm bill_depth_mm flipper_length_mm body_mass_g
   <fct>   <fct>              <dbl>         <dbl>             <int>       <int>
 1 Adelie  Torgersen           39.1          18.7               181        3750
 2 Adelie  Torgersen           39.3          20.6               190        3650
 3 Adelie  Torgersen           39.2          19.6               195        4675
 4 Adelie  Torgersen           38.6          21.2               191        3800
 5 Adelie  Torgersen           34.6          21.1               198        4400
 6 Adelie  Torgersen           42.5          20.7               197        4500
 7 Adelie  Torgersen           46            21.5               194        4200
 8 Adelie  Biscoe              37.7          18.7               180        3600
 9 Adelie  Biscoe              38.2          18.1               185        3950
10 Adelie  Biscoe              38.8          17.2               180        3800
# ℹ 63 more rows
# ℹ 2 more variables: sex <fct>, year <int>

$Chinstrap.male
# A tibble: 34 × 8
   species   island bill_length_mm bill_depth_mm flipper_length_mm body_mass_g
   <fct>     <fct>           <dbl>         <dbl>             <int>       <int>
 1 Chinstrap Dream            50            19.5               196        3900
 2 Chinstrap Dream            51.3          19.2               193        3650
 3 Chinstrap Dream            52.7          19.8               197        3725
 4 Chinstrap Dream            51.3          18.2               197        3750
 5 Chinstrap Dream            51.3          19.9               198        3700
 6 Chinstrap Dream            51.7          20.3               194        3775
 7 Chinstrap Dream            52            18.1               201        4050
 8 Chinstrap Dream            50.5          19.6               201        4050
 9 Chinstrap Dream            50.3          20                 197        3300
10 Chinstrap Dream            49.2          18.2               195        4400
# ℹ 24 more rows
# ℹ 2 more variables: sex <fct>, year <int>

$Gentoo.male
# A tibble: 61 × 8
   species island bill_length_mm bill_depth_mm flipper_length_mm body_mass_g
   <fct>   <fct>           <dbl>         <dbl>             <int>       <int>
 1 Gentoo  Biscoe           50            16.3               230        5700
 2 Gentoo  Biscoe           50            15.2               218        5700
 3 Gentoo  Biscoe           47.6          14.5               215        5400
 4 Gentoo  Biscoe           46.7          15.3               219        5200
 5 Gentoo  Biscoe           46.8          15.4               215        5150
 6 Gentoo  Biscoe           49            16.1               216        5550
 7 Gentoo  Biscoe           48.4          14.6               213        5850
 8 Gentoo  Biscoe           49.3          15.7               217        5850
 9 Gentoo  Biscoe           49.2          15.2               221        6300
10 Gentoo  Biscoe           48.7          15.1               222        5350
# ℹ 51 more rows
# ℹ 2 more variables: sex <fct>, year <int>
…
